2;admin;Administrador;admin@email.com;;;1;passwd
5;operador;Operador do Sistema;op@email.com;;;2;123456
8;josue;Josue Gomes;sojue@cabepa.com.br;123;;1;1004
9;fabbio;Fabbio;;;;1;1234
10;caixaauxilio;Caixa Auxilio;;;;1;123456
11;joseosvaldo;Jose Osvaldo;..;1;;2;4010
12;domingos;Domingos Santos;.;..;;1;123456
15;adelson;Adelson Rocha;;;;2;880491
